<?xml version="1.0" encoding="UTF-8"?>
<svg width="20px" height="22px" viewBox="0 0 20 22" version="1.1" xmlns="http://www.w3.org/2000/svg" xmlns:xlink="http://www.w3.org/1999/xlink">
    <!-- Generator: Sketch 41.2 (35397) - http://www.bohemiancoding.com/sketch -->
    <title>editor-trash-delete-recycle-bin-glyph</title>
    <desc>Created with Sketch.</desc>
    <defs></defs>
    <g id="Page-1" stroke="none" stroke-width="1" fill="none" fill-rule="evenodd">
        <g id="Desktop-Copy-3" transform="translate(-1107.000000, -321.000000)" fill="#787878">
            <path d="M1108.0012,322 C1108.0012,322 1107.5,322 1107.5,323 C1107.5,324 1108.0012,324 1108.0012,324 L1125.9988,324 C1125.9988,324 1126.5,324 1126.5,323 C1126.5,322 1125.9988,322 1125.9988,322 L1108.0012,322 L1108.0012,322 Z M1108.47375,325 L1125.47375,325 L1123.47375,343 L1110.47375,343 L1108.47375,325 Z M1115.47375,321 C1114.47375,321 1114.47375,322 1114.47375,322 L1119.47375,322 C1119.47375,322 1119.47375,321 1118.47375,321 L1115.47375,321 L1115.47375,321 Z M1113.47375,341 L1114.47375,341 L1113.47375,324.962891 L1112.47375,324.962891 L1113.47375,341 Z M1120.47375,324.962891 L1119.47375,341 L1120.47375,341 L1121.47375,324.962891 L1120.47375,324.962891 L1120.47375,324.962891 Z M1116.47375,324.962891 L1116.47375,341 L1117.47375,341 L1117.47375,324.962891 L1116.47375,324.962891 L1116.47375,324.962891 Z" id="editor-trash-delete-recycle-bin-glyph"></path>
        </g>
    </g>
</svg>